<?xml version="1.0" encoding="UTF-8" standalone="no"?>
<!-- Created with Inkscape (http://www.inkscape.org/) -->

<svg
   xmlns:dc="http://purl.org/dc/elements/1.1/"
   xmlns:cc="http://creativecommons.org/ns#"
   xmlns:rdf="http://www.w3.org/1999/02/22-rdf-syntax-ns#"
   xmlns:svg="http://www.w3.org/2000/svg"
   xmlns="http://www.w3.org/2000/svg"
   xmlns:sodipodi="http://sodipodi.sourceforge.net/DTD/sodipodi-0.dtd"
   xmlns:inkscape="http://www.inkscape.org/namespaces/inkscape"
   width="623"
   height="283"
   id="svg2"
   version="1.1"
   inkscape:version="0.91 r13725"
   sodipodi:docname="Ethernet_MDI_to_MDIX.svg">
  <defs
     id="defs4">
    <marker
       inkscape:stockid="Arrow1Lend"
       orient="auto"
       refY="0"
       refX="0"
       id="Arrow1Lend"
       style="overflow:visible">
      <path
         id="path4435"
         d="M 0,0 5,-5 -12.5,0 5,5 0,0 z"
         style="fill-rule:evenodd;stroke:#000000;stroke-width:1pt;marker-start:none"
         transform="matrix(-0.8,0,0,-0.8,-10,0)" />
    </marker>
    <inkscape:perspective
       sodipodi:type="inkscape:persp3d"
       inkscape:vp_x="0 : 526.18109 : 1"
       inkscape:vp_y="0 : 1000 : 0"
       inkscape:vp_z="744.09448 : 526.18109 : 1"
       inkscape:persp3d-origin="372.04724 : 350.78739 : 1"
       id="perspective10" />
    <inkscape:perspective
       id="perspective2845"
       inkscape:persp3d-origin="0.5 : 0.33333333 : 1"
       inkscape:vp_z="1 : 0.5 : 1"
       inkscape:vp_y="0 : 1000 : 0"
       inkscape:vp_x="0 : 0.5 : 1"
       sodipodi:type="inkscape:persp3d" />
    <inkscape:perspective
       id="perspective4236"
       inkscape:persp3d-origin="0.5 : 0.33333333 : 1"
       inkscape:vp_z="1 : 0.5 : 1"
       inkscape:vp_y="0 : 1000 : 0"
       inkscape:vp_x="0 : 0.5 : 1"
       sodipodi:type="inkscape:persp3d" />
    <inkscape:perspective
       id="perspective4264"
       inkscape:persp3d-origin="0.5 : 0.33333333 : 1"
       inkscape:vp_z="1 : 0.5 : 1"
       inkscape:vp_y="0 : 1000 : 0"
       inkscape:vp_x="0 : 0.5 : 1"
       sodipodi:type="inkscape:persp3d" />
    <inkscape:perspective
       id="perspective4264-5"
       inkscape:persp3d-origin="0.5 : 0.33333333 : 1"
       inkscape:vp_z="1 : 0.5 : 1"
       inkscape:vp_y="0 : 1000 : 0"
       inkscape:vp_x="0 : 0.5 : 1"
       sodipodi:type="inkscape:persp3d" />
    <inkscape:perspective
       id="perspective4264-1"
       inkscape:persp3d-origin="0.5 : 0.33333333 : 1"
       inkscape:vp_z="1 : 0.5 : 1"
       inkscape:vp_y="0 : 1000 : 0"
       inkscape:vp_x="0 : 0.5 : 1"
       sodipodi:type="inkscape:persp3d" />
    <inkscape:perspective
       id="perspective4331"
       inkscape:persp3d-origin="0.5 : 0.33333333 : 1"
       inkscape:vp_z="1 : 0.5 : 1"
       inkscape:vp_y="0 : 1000 : 0"
       inkscape:vp_x="0 : 0.5 : 1"
       sodipodi:type="inkscape:persp3d" />
    <inkscape:perspective
       id="perspective4373"
       inkscape:persp3d-origin="0.5 : 0.33333333 : 1"
       inkscape:vp_z="1 : 0.5 : 1"
       inkscape:vp_y="0 : 1000 : 0"
       inkscape:vp_x="0 : 0.5 : 1"
       sodipodi:type="inkscape:persp3d" />
    <inkscape:perspective
       id="perspective4373-2"
       inkscape:persp3d-origin="0.5 : 0.33333333 : 1"
       inkscape:vp_z="1 : 0.5 : 1"
       inkscape:vp_y="0 : 1000 : 0"
       inkscape:vp_x="0 : 0.5 : 1"
       sodipodi:type="inkscape:persp3d" />
    <inkscape:perspective
       id="perspective4373-8"
       inkscape:persp3d-origin="0.5 : 0.33333333 : 1"
       inkscape:vp_z="1 : 0.5 : 1"
       inkscape:vp_y="0 : 1000 : 0"
       inkscape:vp_x="0 : 0.5 : 1"
       sodipodi:type="inkscape:persp3d" />
    <inkscape:perspective
       id="perspective4889"
       inkscape:persp3d-origin="0.5 : 0.33333333 : 1"
       inkscape:vp_z="1 : 0.5 : 1"
       inkscape:vp_y="0 : 1000 : 0"
       inkscape:vp_x="0 : 0.5 : 1"
       sodipodi:type="inkscape:persp3d" />
    <marker
       inkscape:stockid="Arrow1Lend"
       orient="auto"
       refY="0"
       refX="0"
       id="Arrow1Lend-8"
       style="overflow:visible">
      <path
         id="path4435-9"
         d="M 0,0 5,-5 -12.5,0 5,5 0,0 z"
         style="fill-rule:evenodd;stroke:#000000;stroke-width:1pt;marker-start:none"
         transform="matrix(-0.8,0,0,-0.8,-10,0)" />
    </marker>
    <inkscape:perspective
       id="perspective4923"
       inkscape:persp3d-origin="0.5 : 0.33333333 : 1"
       inkscape:vp_z="1 : 0.5 : 1"
       inkscape:vp_y="0 : 1000 : 0"
       inkscape:vp_x="0 : 0.5 : 1"
       sodipodi:type="inkscape:persp3d" />
    <marker
       inkscape:stockid="Arrow1Lend"
       orient="auto"
       refY="0"
       refX="0"
       id="Arrow1Lend-5"
       style="overflow:visible">
      <path
         id="path4435-4"
         d="M 0,0 5,-5 -12.5,0 5,5 0,0 z"
         style="fill-rule:evenodd;stroke:#000000;stroke-width:1pt;marker-start:none"
         transform="matrix(-0.8,0,0,-0.8,-10,0)" />
    </marker>
    <marker
       inkscape:stockid="Arrow1Lend"
       orient="auto"
       refY="0"
       refX="0"
       id="marker4929"
       style="overflow:visible">
      <path
         id="path4931"
         d="M 0,0 5,-5 -12.5,0 5,5 0,0 z"
         style="fill-rule:evenodd;stroke:#000000;stroke-width:1pt;marker-start:none"
         transform="matrix(-0.8,0,0,-0.8,-10,0)" />
    </marker>
    <inkscape:perspective
       id="perspective4980"
       inkscape:persp3d-origin="0.5 : 0.33333333 : 1"
       inkscape:vp_z="1 : 0.5 : 1"
       inkscape:vp_y="0 : 1000 : 0"
       inkscape:vp_x="0 : 0.5 : 1"
       sodipodi:type="inkscape:persp3d" />
    <inkscape:perspective
       id="perspective5006"
       inkscape:persp3d-origin="0.5 : 0.33333333 : 1"
       inkscape:vp_z="1 : 0.5 : 1"
       inkscape:vp_y="0 : 1000 : 0"
       inkscape:vp_x="0 : 0.5 : 1"
       sodipodi:type="inkscape:persp3d" />
    <inkscape:perspective
       id="perspective5115"
       inkscape:persp3d-origin="0.5 : 0.33333333 : 1"
       inkscape:vp_z="1 : 0.5 : 1"
       inkscape:vp_y="0 : 1000 : 0"
       inkscape:vp_x="0 : 0.5 : 1"
       sodipodi:type="inkscape:persp3d" />
    <marker
       inkscape:stockid="Arrow1Lend"
       orient="auto"
       refY="0"
       refX="0"
       id="Arrow1Lend-7"
       style="overflow:visible">
      <path
         id="path4435-7"
         d="M 0,0 5,-5 -12.5,0 5,5 0,0 z"
         style="fill-rule:evenodd;stroke:#000000;stroke-width:1pt;marker-start:none"
         transform="matrix(-0.8,0,0,-0.8,-10,0)" />
    </marker>
    <marker
       inkscape:stockid="Arrow1Lend"
       orient="auto"
       refY="0"
       refX="0"
       id="marker5121"
       style="overflow:visible">
      <path
         id="path5123"
         d="M 0,0 5,-5 -12.5,0 5,5 0,0 z"
         style="fill-rule:evenodd;stroke:#000000;stroke-width:1pt;marker-start:none"
         transform="matrix(-0.8,0,0,-0.8,-10,0)" />
    </marker>
    <marker
       inkscape:stockid="Arrow1Lend"
       orient="auto"
       refY="0"
       refX="0"
       id="marker5125"
       style="overflow:visible">
      <path
         id="path5127"
         d="M 0,0 5,-5 -12.5,0 5,5 0,0 z"
         style="fill-rule:evenodd;stroke:#000000;stroke-width:1pt;marker-start:none"
         transform="matrix(-0.8,0,0,-0.8,-10,0)" />
    </marker>
    <marker
       inkscape:stockid="Arrow1Lend"
       orient="auto"
       refY="0"
       refX="0"
       id="marker5129"
       style="overflow:visible">
      <path
         id="path5131"
         d="M 0,0 5,-5 -12.5,0 5,5 0,0 z"
         style="fill-rule:evenodd;stroke:#000000;stroke-width:1pt;marker-start:none"
         transform="matrix(-0.8,0,0,-0.8,-10,0)" />
    </marker>
    <inkscape:perspective
       id="perspective5906"
       inkscape:persp3d-origin="0.5 : 0.33333333 : 1"
       inkscape:vp_z="1 : 0.5 : 1"
       inkscape:vp_y="0 : 1000 : 0"
       inkscape:vp_x="0 : 0.5 : 1"
       sodipodi:type="inkscape:persp3d" />
    <inkscape:perspective
       id="perspective6499"
       inkscape:persp3d-origin="0.5 : 0.33333333 : 1"
       inkscape:vp_z="1 : 0.5 : 1"
       inkscape:vp_y="0 : 1000 : 0"
       inkscape:vp_x="0 : 0.5 : 1"
       sodipodi:type="inkscape:persp3d" />
    <inkscape:perspective
       id="perspective6521"
       inkscape:persp3d-origin="0.5 : 0.33333333 : 1"
       inkscape:vp_z="1 : 0.5 : 1"
       inkscape:vp_y="0 : 1000 : 0"
       inkscape:vp_x="0 : 0.5 : 1"
       sodipodi:type="inkscape:persp3d" />
    <inkscape:perspective
       id="perspective6543"
       inkscape:persp3d-origin="0.5 : 0.33333333 : 1"
       inkscape:vp_z="1 : 0.5 : 1"
       inkscape:vp_y="0 : 1000 : 0"
       inkscape:vp_x="0 : 0.5 : 1"
       sodipodi:type="inkscape:persp3d" />
    <marker
       style="overflow:visible"
       id="Arrow1Lend-0"
       refX="0"
       refY="0"
       orient="auto"
       inkscape:stockid="Arrow1Lend">
      <path
         transform="matrix(-0.8,0,0,-0.8,-10,0)"
         style="fill-rule:evenodd;stroke:#000000;stroke-width:1pt;marker-start:none"
         d="M 0,0 5,-5 -12.5,0 5,5 0,0 z"
         id="path4435-76" />
    </marker>
    <inkscape:perspective
       id="perspective10-5"
       inkscape:persp3d-origin="372.04724 : 350.78739 : 1"
       inkscape:vp_z="744.09448 : 526.18109 : 1"
       inkscape:vp_y="0 : 1000 : 0"
       inkscape:vp_x="0 : 526.18109 : 1"
       sodipodi:type="inkscape:persp3d" />
    <inkscape:perspective
       sodipodi:type="inkscape:persp3d"
       inkscape:vp_x="0 : 0.5 : 1"
       inkscape:vp_y="0 : 1000 : 0"
       inkscape:vp_z="1 : 0.5 : 1"
       inkscape:persp3d-origin="0.5 : 0.33333333 : 1"
       id="perspective2845-2" />
    <inkscape:perspective
       sodipodi:type="inkscape:persp3d"
       inkscape:vp_x="0 : 0.5 : 1"
       inkscape:vp_y="0 : 1000 : 0"
       inkscape:vp_z="1 : 0.5 : 1"
       inkscape:persp3d-origin="0.5 : 0.33333333 : 1"
       id="perspective4236-3" />
    <inkscape:perspective
       sodipodi:type="inkscape:persp3d"
       inkscape:vp_x="0 : 0.5 : 1"
       inkscape:vp_y="0 : 1000 : 0"
       inkscape:vp_z="1 : 0.5 : 1"
       inkscape:persp3d-origin="0.5 : 0.33333333 : 1"
       id="perspective4264-6" />
    <inkscape:perspective
       sodipodi:type="inkscape:persp3d"
       inkscape:vp_x="0 : 0.5 : 1"
       inkscape:vp_y="0 : 1000 : 0"
       inkscape:vp_z="1 : 0.5 : 1"
       inkscape:persp3d-origin="0.5 : 0.33333333 : 1"
       id="perspective4264-5-1" />
    <inkscape:perspective
       sodipodi:type="inkscape:persp3d"
       inkscape:vp_x="0 : 0.5 : 1"
       inkscape:vp_y="0 : 1000 : 0"
       inkscape:vp_z="1 : 0.5 : 1"
       inkscape:persp3d-origin="0.5 : 0.33333333 : 1"
       id="perspective4264-1-0" />
    <inkscape:perspective
       sodipodi:type="inkscape:persp3d"
       inkscape:vp_x="0 : 0.5 : 1"
       inkscape:vp_y="0 : 1000 : 0"
       inkscape:vp_z="1 : 0.5 : 1"
       inkscape:persp3d-origin="0.5 : 0.33333333 : 1"
       id="perspective4331-3" />
    <inkscape:perspective
       sodipodi:type="inkscape:persp3d"
       inkscape:vp_x="0 : 0.5 : 1"
       inkscape:vp_y="0 : 1000 : 0"
       inkscape:vp_z="1 : 0.5 : 1"
       inkscape:persp3d-origin="0.5 : 0.33333333 : 1"
       id="perspective4373-4" />
    <inkscape:perspective
       sodipodi:type="inkscape:persp3d"
       inkscape:vp_x="0 : 0.5 : 1"
       inkscape:vp_y="0 : 1000 : 0"
       inkscape:vp_z="1 : 0.5 : 1"
       inkscape:persp3d-origin="0.5 : 0.33333333 : 1"
       id="perspective4373-2-0" />
    <inkscape:perspective
       sodipodi:type="inkscape:persp3d"
       inkscape:vp_x="0 : 0.5 : 1"
       inkscape:vp_y="0 : 1000 : 0"
       inkscape:vp_z="1 : 0.5 : 1"
       inkscape:persp3d-origin="0.5 : 0.33333333 : 1"
       id="perspective4373-8-5" />
    <inkscape:perspective
       sodipodi:type="inkscape:persp3d"
       inkscape:vp_x="0 : 0.5 : 1"
       inkscape:vp_y="0 : 1000 : 0"
       inkscape:vp_z="1 : 0.5 : 1"
       inkscape:persp3d-origin="0.5 : 0.33333333 : 1"
       id="perspective4889-3" />
    <marker
       style="overflow:visible"
       id="Arrow1Lend-8-9"
       refX="0"
       refY="0"
       orient="auto"
       inkscape:stockid="Arrow1Lend">
      <path
         transform="matrix(-0.8,0,0,-0.8,-10,0)"
         style="fill-rule:evenodd;stroke:#000000;stroke-width:1pt;marker-start:none"
         d="M 0,0 5,-5 -12.5,0 5,5 0,0 z"
         id="path4435-9-1" />
    </marker>
    <inkscape:perspective
       sodipodi:type="inkscape:persp3d"
       inkscape:vp_x="0 : 0.5 : 1"
       inkscape:vp_y="0 : 1000 : 0"
       inkscape:vp_z="1 : 0.5 : 1"
       inkscape:persp3d-origin="0.5 : 0.33333333 : 1"
       id="perspective4923-8" />
    <marker
       style="overflow:visible"
       id="Arrow1Lend-5-7"
       refX="0"
       refY="0"
       orient="auto"
       inkscape:stockid="Arrow1Lend">
      <path
         transform="matrix(-0.8,0,0,-0.8,-10,0)"
         style="fill-rule:evenodd;stroke:#000000;stroke-width:1pt;marker-start:none"
         d="M 0,0 5,-5 -12.5,0 5,5 0,0 z"
         id="path4435-4-4" />
    </marker>
    <marker
       style="overflow:visible"
       id="marker4929-0"
       refX="0"
       refY="0"
       orient="auto"
       inkscape:stockid="Arrow1Lend">
      <path
         transform="matrix(-0.8,0,0,-0.8,-10,0)"
         style="fill-rule:evenodd;stroke:#000000;stroke-width:1pt;marker-start:none"
         d="M 0,0 5,-5 -12.5,0 5,5 0,0 z"
         id="path4931-3" />
    </marker>
    <inkscape:perspective
       sodipodi:type="inkscape:persp3d"
       inkscape:vp_x="0 : 0.5 : 1"
       inkscape:vp_y="0 : 1000 : 0"
       inkscape:vp_z="1 : 0.5 : 1"
       inkscape:persp3d-origin="0.5 : 0.33333333 : 1"
       id="perspective4980-9" />
    <inkscape:perspective
       sodipodi:type="inkscape:persp3d"
       inkscape:vp_x="0 : 0.5 : 1"
       inkscape:vp_y="0 : 1000 : 0"
       inkscape:vp_z="1 : 0.5 : 1"
       inkscape:persp3d-origin="0.5 : 0.33333333 : 1"
       id="perspective5006-1" />
    <inkscape:perspective
       sodipodi:type="inkscape:persp3d"
       inkscape:vp_x="0 : 0.5 : 1"
       inkscape:vp_y="0 : 1000 : 0"
       inkscape:vp_z="1 : 0.5 : 1"
       inkscape:persp3d-origin="0.5 : 0.33333333 : 1"
       id="perspective5115-9" />
    <marker
       style="overflow:visible"
       id="Arrow1Lend-7-0"
       refX="0"
       refY="0"
       orient="auto"
       inkscape:stockid="Arrow1Lend">
      <path
         transform="matrix(-0.8,0,0,-0.8,-10,0)"
         style="fill-rule:evenodd;stroke:#000000;stroke-width:1pt;marker-start:none"
         d="M 0,0 5,-5 -12.5,0 5,5 0,0 z"
         id="path4435-7-1" />
    </marker>
    <marker
       style="overflow:visible"
       id="marker5121-8"
       refX="0"
       refY="0"
       orient="auto"
       inkscape:stockid="Arrow1Lend">
      <path
         transform="matrix(-0.8,0,0,-0.8,-10,0)"
         style="fill-rule:evenodd;stroke:#000000;stroke-width:1pt;marker-start:none"
         d="M 0,0 5,-5 -12.5,0 5,5 0,0 z"
         id="path5123-8" />
    </marker>
    <marker
       style="overflow:visible"
       id="marker5125-4"
       refX="0"
       refY="0"
       orient="auto"
       inkscape:stockid="Arrow1Lend">
      <path
         transform="matrix(-0.8,0,0,-0.8,-10,0)"
         style="fill-rule:evenodd;stroke:#000000;stroke-width:1pt;marker-start:none"
         d="M 0,0 5,-5 -12.5,0 5,5 0,0 z"
         id="path5127-0" />
    </marker>
    <marker
       style="overflow:visible"
       id="marker5129-7"
       refX="0"
       refY="0"
       orient="auto"
       inkscape:stockid="Arrow1Lend">
      <path
         transform="matrix(-0.8,0,0,-0.8,-10,0)"
         style="fill-rule:evenodd;stroke:#000000;stroke-width:1pt;marker-start:none"
         d="M 0,0 5,-5 -12.5,0 5,5 0,0 z"
         id="path5131-4" />
    </marker>
    <inkscape:perspective
       sodipodi:type="inkscape:persp3d"
       inkscape:vp_x="0 : 0.5 : 1"
       inkscape:vp_y="0 : 1000 : 0"
       inkscape:vp_z="1 : 0.5 : 1"
       inkscape:persp3d-origin="0.5 : 0.33333333 : 1"
       id="perspective5540" />
    <inkscape:perspective
       sodipodi:type="inkscape:persp3d"
       inkscape:vp_x="0 : 0.5 : 1"
       inkscape:vp_y="0 : 1000 : 0"
       inkscape:vp_z="1 : 0.5 : 1"
       inkscape:persp3d-origin="0.5 : 0.33333333 : 1"
       id="perspective5566" />
    <inkscape:perspective
       sodipodi:type="inkscape:persp3d"
       inkscape:vp_x="0 : 0.5 : 1"
       inkscape:vp_y="0 : 1000 : 0"
       inkscape:vp_z="1 : 0.5 : 1"
       inkscape:persp3d-origin="0.5 : 0.33333333 : 1"
       id="perspective5588" />
    <inkscape:perspective
       sodipodi:type="inkscape:persp3d"
       inkscape:vp_x="0 : 0.5 : 1"
       inkscape:vp_y="0 : 1000 : 0"
       inkscape:vp_z="1 : 0.5 : 1"
       inkscape:persp3d-origin="0.5 : 0.33333333 : 1"
       id="perspective5610" />
  </defs>
  <sodipodi:namedview
     id="base"
     pagecolor="#ffffff"
     bordercolor="#666666"
     borderopacity="1.0"
     inkscape:pageopacity="0.0"
     inkscape:pageshadow="2"
     inkscape:zoom="1"
     inkscape:cx="474.14017"
     inkscape:cy="47.786243"
     inkscape:document-units="px"
     inkscape:current-layer="layer1"
     showgrid="false"
     inkscape:snap-grids="false"
     inkscape:window-width="960"
     inkscape:window-height="1061"
     inkscape:window-x="0"
     inkscape:window-y="0"
     inkscape:window-maximized="0"
     inkscape:snap-to-guides="false"
     inkscape:object-nodes="true"
     inkscape:snap-smooth-nodes="true">
    <inkscape:grid
       type="xygrid"
       id="grid2818"
       empspacing="5"
       visible="true"
       enabled="true"
       snapvisiblegridlinesonly="true" />
  </sodipodi:namedview>
  <metadata
     id="metadata7">
    <rdf:RDF>
      <cc:Work
         rdf:about="">
        <dc:format>image/svg+xml</dc:format>
        <dc:type
           rdf:resource="http://purl.org/dc/dcmitype/StillImage" />
        <dc:title />
      </cc:Work>
    </rdf:RDF>
  </metadata>
  <g
     inkscape:label="Layer 1"
     inkscape:groupmode="layer"
     id="layer1"
     transform="translate(-42.915722,-192.11443)">
    <rect
       transform="scale(-1,1)"
       y="211.07593"
       x="-580"
       height="219.28571"
       width="55"
       id="rect4404"
       style="fill:#ffffff;stroke:none;stroke-width:3;stroke-miterlimit:4;stroke-opacity:1;stroke-dasharray:none;fill-opacity:1" />
    <rect
       style="fill:#ffffff;stroke:none;stroke-width:3;stroke-miterlimit:4;stroke-opacity:1;stroke-dasharray:none;fill-opacity:1"
       id="rect2874"
       width="55"
       height="219.28571"
       x="125"
       y="210.93361" />
    <path
       sodipodi:nodetypes="cc"
       inkscape:connector-curvature="0"
       id="path4512"
       d="m 524.73689,284.81648 -344.94678,0.91168"
       style="fill:none;fill-opacity:1;fill-rule:evenodd;stroke:#3a3a3a;stroke-width:6;stroke-linecap:butt;stroke-linejoin:miter;stroke-miterlimit:4;stroke-dasharray:none;stroke-dashoffset:12.89999962;stroke-opacity:1" />
    <path
       sodipodi:nodetypes="cc"
       inkscape:connector-curvature="0"
       id="path4514"
       d="M 524.73689,359.56522 179.79011,359.26727"
       style="fill:none;fill-opacity:1;fill-rule:evenodd;stroke:#3a3a3a;stroke-width:6;stroke-linecap:butt;stroke-linejoin:miter;stroke-miterlimit:4;stroke-dasharray:none;stroke-opacity:1" />
    <path
       sodipodi:nodetypes="cc"
       inkscape:connector-curvature="0"
       id="path4502"
       d="m 524.73689,284.81648 -342.94678,0.91168"
       style="fill:none;fill-opacity:1;fill-rule:evenodd;stroke:#ff7316;stroke-width:3;stroke-linecap:butt;stroke-linejoin:miter;stroke-miterlimit:4;stroke-dasharray:none;stroke-opacity:1" />
    <path
       style="fill:none;fill-opacity:1;fill-rule:evenodd;stroke:#ffffff;stroke-width:3;stroke-linecap:butt;stroke-linejoin:miter;stroke-miterlimit:4;stroke-dasharray:12, 12;stroke-dashoffset:12.89999962;stroke-opacity:1"
       d="m 524.73689,284.81648 -344.94678,0.91168"
       id="path4508"
       inkscape:connector-curvature="0"
       sodipodi:nodetypes="cc" />
    <path
       style="fill:none;fill-opacity:1;fill-rule:evenodd;stroke:#ff7316;stroke-width:3;stroke-linecap:butt;stroke-linejoin:miter;stroke-miterlimit:4;stroke-dasharray:none;stroke-opacity:1"
       d="M 524.73689,359.56522 179.79011,359.26727"
       id="path4506"
       inkscape:connector-curvature="0"
       sodipodi:nodetypes="cc" />
    <path
       style="fill:none;fill-opacity:1;fill-rule:evenodd;stroke:#3a3a3a;stroke-width:6;stroke-linecap:butt;stroke-linejoin:miter;stroke-miterlimit:4;stroke-dasharray:none;stroke-dashoffset:17.70000076;stroke-opacity:1"
       d="m 179.79011,234.81648 344.94678,0.91168"
       id="path4518"
       inkscape:connector-curvature="0"
       sodipodi:nodetypes="cc" />
    <path
       style="fill:#00ff00;fill-opacity:1;fill-rule:evenodd;stroke:#3a3a3a;stroke-width:6;stroke-linecap:butt;stroke-linejoin:miter;stroke-miterlimit:4;stroke-dasharray:none;stroke-opacity:1"
       d="m 179.79011,259.56522 344.94678,-0.29795"
       id="path4516"
       inkscape:connector-curvature="0"
       sodipodi:nodetypes="cc" />
    <path
       style="fill:none;fill-opacity:1;fill-rule:evenodd;stroke:#5cdb00;stroke-width:3;stroke-linecap:butt;stroke-linejoin:miter;stroke-miterlimit:4;stroke-dasharray:none;stroke-opacity:1"
       d="m 181.79011,234.81648 342.94678,0.91168"
       id="path4500"
       inkscape:connector-curvature="0"
       sodipodi:nodetypes="cc" />
    <path
       sodipodi:nodetypes="cc"
       inkscape:connector-curvature="0"
       id="path4504"
       d="m 179.79011,259.56522 344.94678,-0.29795"
       style="fill:#00ff00;fill-opacity:1;fill-rule:evenodd;stroke:#5cdb00;stroke-width:3;stroke-linecap:butt;stroke-linejoin:miter;stroke-miterlimit:4;stroke-dasharray:none;stroke-opacity:1" />
    <path
       sodipodi:nodetypes="cc"
       inkscape:connector-curvature="0"
       id="path4510"
       d="m 181.79011,234.81648 344.94678,0.91168"
       style="fill:none;fill-opacity:1;fill-rule:evenodd;stroke:#ffffff;stroke-width:3;stroke-linecap:butt;stroke-linejoin:miter;stroke-miterlimit:4;stroke-dasharray:12, 12;stroke-dashoffset:17.70000076;stroke-opacity:1" />
    <text
       xml:space="preserve"
       style="font-size:18px;font-style:normal;font-weight:normal;fill:#000000;fill-opacity:1;stroke:none;font-family:Arial;-inkscape-font-specification:Arial"
       x="49.915722"
       y="253.11443"
       id="text4419"><tspan
         sodipodi:role="line"
         id="tspan4421"
         x="49.915722"
         y="253.11443">Transmit</tspan></text>
    <text
       xml:space="preserve"
       style="font-size:28px;font-style:normal;font-weight:bold;fill:#000000;fill-opacity:1;stroke:none;font-family:Arial;-inkscape-font-specification:Arial Bold"
       x="99.915718"
       y="458.11441"
       id="text4423"><tspan
         sodipodi:role="line"
         id="tspan4425"
         x="99.915718"
         y="458.11441">NIC MDI</tspan></text>
    <path
       style="fill:none;stroke:#000000;stroke-width:1px;stroke-linecap:butt;stroke-linejoin:miter;stroke-opacity:1;marker-end:url(#Arrow1Lend)"
       d="m 105,232.36218 40,0"
       id="path4427" />
    <text
       xml:space="preserve"
       style="font-size:20px;font-style:normal;font-weight:normal;fill:#000000;fill-opacity:1;stroke:none;font-family:Arial;-inkscape-font-specification:Arial"
       x="89.415718"
       y="238.61443"
       id="text4877"><tspan
         sodipodi:role="line"
         id="tspan4879"
         x="89.415718"
         y="238.61443">+</tspan></text>
    <path
       style="fill:none;stroke:#000000;stroke-width:1px;stroke-linecap:butt;stroke-linejoin:miter;stroke-opacity:1;marker-end:url(#Arrow1Lend)"
       d="m 105,262.36218 40,0"
       id="path4427-2" />
    <text
       xml:space="preserve"
       style="font-size:32px;font-style:normal;font-weight:normal;fill:#000000;fill-opacity:1;stroke:none;font-family:Arial;-inkscape-font-specification:Arial"
       x="89.415718"
       y="268.61441"
       id="text4877-7"><tspan
         sodipodi:role="line"
         id="tspan4879-9"
         x="89.415718"
         y="268.61441">-</tspan></text>
    <text
       xml:space="preserve"
       style="font-size:18px;font-style:normal;font-weight:normal;fill:#000000;fill-opacity:1;stroke:none;font-family:Arial;-inkscape-font-specification:Arial"
       x="49.915722"
       y="333.11441"
       id="text4419-3"><tspan
         sodipodi:role="line"
         id="tspan4421-1"
         x="49.915722"
         y="333.11441">Receive</tspan></text>
    <path
       style="fill:none;stroke:#000000;stroke-width:1px;stroke-linecap:butt;stroke-linejoin:miter;stroke-opacity:1;marker-end:url(#Arrow1Lend)"
       d="m 145,287.36218 -40,0"
       id="path4427-23" />
    <text
       xml:space="preserve"
       style="font-size:20px;font-style:normal;font-weight:normal;fill:#000000;fill-opacity:1;stroke:none;font-family:Arial;-inkscape-font-specification:Arial"
       x="89.415718"
       y="293.61441"
       id="text4877-3"><tspan
         sodipodi:role="line"
         id="tspan4879-4"
         x="89.415718"
         y="293.61441">+</tspan></text>
    <path
       style="fill:none;stroke:#000000;stroke-width:1px;stroke-linecap:butt;stroke-linejoin:miter;stroke-opacity:1;marker-end:url(#Arrow1Lend)"
       d="m 145,357.36218 -40,0"
       id="path4427-2-1" />
    <text
       xml:space="preserve"
       style="font-size:32px;font-style:normal;font-weight:normal;fill:#000000;fill-opacity:1;stroke:none;font-family:Arial;-inkscape-font-specification:Arial"
       x="89.415718"
       y="363.61441"
       id="text4877-7-1"><tspan
         sodipodi:role="line"
         id="tspan4879-9-3"
         x="89.415718"
         y="363.61441">-</tspan></text>
    <path
       style="fill:#ff7316;fill-opacity:1;stroke:none"
       d="m 556.46648,277.8573 0,14.64722 -31.0025,0 z"
       id="path5556-4-8"
       inkscape:connector-curvature="0"
       sodipodi:nodetypes="cccc" />
    <path
       style="fill:#5cdb00;fill-opacity:1;stroke:none"
       d="m 525.96523,242.36181 30,-14.64684 0,14.64721 -30,0 z"
       id="path5556-9"
       inkscape:connector-curvature="0"
       sodipodi:nodetypes="ccccc" />
    <rect
       style="font-size:11px;opacity:1;fill:none;stroke:#000000;stroke-width:0.96336782;stroke-miterlimit:4;stroke-dasharray:none;stroke-opacity:1"
       id="rect4222-3"
       width="30"
       height="14.647212"
       x="-555.96527"
       y="227.71497"
       transform="scale(-1,1)" />
    <text
       xml:space="preserve"
       style="font-style:normal;font-weight:normal;font-size:12px;font-family:Arial;-inkscape-font-specification:Arial;fill:#000000;fill-opacity:1;stroke:none"
       x="537.46429"
       y="239.1665"
       id="text4224-1"><tspan
         sodipodi:role="line"
         id="tspan4226-9"
         x="537.46429"
         y="239.1665">1</tspan></text>
    <rect
       style="font-size:11px;opacity:1;fill:#5cdb00;stroke:#000000;stroke-width:0.96336788;stroke-miterlimit:4;stroke-dasharray:none;stroke-opacity:1;fill-opacity:1"
       id="rect4222-7-86"
       width="30"
       height="14.647212"
       x="-555.96527"
       y="252.50452"
       transform="scale(-1,1)" />
    <text
       xml:space="preserve"
       style="font-style:normal;font-weight:normal;font-size:12px;font-family:Arial;-inkscape-font-specification:Arial;fill:#000000;fill-opacity:1;stroke:none"
       x="537.62836"
       y="264.01758"
       id="text4224-4-50"><tspan
         sodipodi:role="line"
         id="tspan4226-0-28"
         x="537.62836"
         y="264.01758">2</tspan></text>
    <rect
       style="font-size:11px;fill:none;stroke:#000000;stroke-width:0.97933191;stroke-miterlimit:4;stroke-dasharray:none;stroke-opacity:1"
       id="rect4222-7-8-6"
       width="31.002502"
       height="14.647212"
       x="-556.46649"
       y="277.8573"
       transform="scale(-1,1)" />
    <text
       xml:space="preserve"
       style="font-style:normal;font-weight:normal;font-size:12px;font-family:Arial;-inkscape-font-specification:Arial;fill:#000000;fill-opacity:1;stroke:none"
       x="537.66351"
       y="289.31177"
       id="text4224-4-2-0"><tspan
         sodipodi:role="line"
         id="tspan4226-0-4-2"
         x="537.66351"
         y="289.31177">3</tspan></text>
    <rect
       style="font-size:11px;fill:none;stroke:#000000;stroke-width:0.96324486;stroke-miterlimit:4;stroke-dasharray:none;stroke-opacity:1"
       id="rect4222-7-5-4"
       width="29.99234"
       height="14.647212"
       x="-555.96143"
       y="302.21371"
       transform="scale(-1,1)" />
    <text
       xml:space="preserve"
       style="font-style:normal;font-weight:normal;font-size:12px;font-family:Arial;-inkscape-font-specification:Arial;fill:#000000;fill-opacity:1;stroke:none"
       x="537.66644"
       y="313.84979"
       id="text4224-4-1-8"><tspan
         sodipodi:role="line"
         id="tspan4226-0-7-6"
         x="537.66644"
         y="313.84979">4</tspan></text>
    <rect
       style="font-size:11px;fill:none;stroke:#000000;stroke-width:0.97132194;stroke-miterlimit:4;stroke-dasharray:none;stroke-opacity:1"
       id="rect4222-7-1-50"
       width="30.497437"
       height="14.647212"
       x="-556.21393"
       y="327.97263"
       transform="scale(-1,1)" />
    <text
       xml:space="preserve"
       style="font-style:normal;font-weight:normal;font-size:12px;font-family:Arial;-inkscape-font-specification:Arial;fill:#000000;fill-opacity:1;stroke:none"
       x="537.64008"
       y="339.36557"
       id="text4224-4-5-9"><tspan
         sodipodi:role="line"
         id="tspan4226-0-2-0"
         x="537.64008"
         y="339.36557">5</tspan></text>
    <rect
       style="font-size:11px;fill:#ff7316;fill-opacity:1;stroke:#000000;stroke-width:0.97132194;stroke-miterlimit:4;stroke-dasharray:none;stroke-opacity:1"
       id="rect4222-7-1-4-0"
       width="30.497437"
       height="14.647212"
       x="-556.21393"
       y="352.8573"
       transform="scale(-1,1)" />
    <text
       xml:space="preserve"
       style="font-style:normal;font-weight:normal;font-size:12px;font-family:Arial;-inkscape-font-specification:Arial;fill:#000000;fill-opacity:1;stroke:none"
       x="537.58734"
       y="364.31177"
       id="text4224-4-5-2-6"><tspan
         sodipodi:role="line"
         id="tspan4226-0-2-3-1"
         x="537.58734"
         y="364.31177">6</tspan></text>
    <rect
       style="font-size:11px;fill:none;stroke:#000000;stroke-width:0.97132194;stroke-miterlimit:4;stroke-dasharray:none;stroke-opacity:1"
       id="rect4222-7-1-2-3"
       width="30.497437"
       height="14.647212"
       x="-556.21393"
       y="377.8573"
       transform="scale(-1,1)" />
    <text
       xml:space="preserve"
       style="font-style:normal;font-weight:normal;font-size:12px;font-family:Arial;-inkscape-font-specification:Arial;fill:#000000;fill-opacity:1;stroke:none"
       x="537.6225"
       y="389.30884"
       id="text4224-4-5-1-8"><tspan
         sodipodi:role="line"
         id="tspan4226-0-2-6-9"
         x="537.6225"
         y="389.30884">7</tspan></text>
    <rect
       style="font-size:11px;fill:none;stroke:#000000;stroke-width:0.97132194;stroke-miterlimit:4;stroke-dasharray:none;stroke-opacity:1"
       id="rect4222-7-1-5-3"
       width="30.497437"
       height="14.647212"
       x="-556.21393"
       y="402.8573"
       transform="scale(-1,1)" />
    <text
       xml:space="preserve"
       style="font-style:normal;font-weight:normal;font-size:12px;font-family:Arial;-inkscape-font-specification:Arial;fill:#000000;fill-opacity:1;stroke:none"
       x="537.62836"
       y="414.31177"
       id="text4224-4-5-7-4"><tspan
         sodipodi:role="line"
         id="tspan4226-0-2-61-4"
         x="537.62836"
         y="414.31177">8</tspan></text>
    <text
       xml:space="preserve"
       style="font-size:18px;font-style:normal;font-weight:normal;fill:#000000;fill-opacity:1;stroke:none;font-family:Arial;-inkscape-font-specification:Arial"
       x="585"
       y="322.36218"
       id="text4419-6"><tspan
         sodipodi:role="line"
         id="tspan4421-0"
         x="585"
         y="322.36218">Transmit</tspan></text>
    <text
       xml:space="preserve"
       style="font-size:28px;font-style:normal;font-weight:bold;fill:#000000;fill-opacity:1;stroke:none;font-family:Arial;-inkscape-font-specification:Arial Bold"
       x="490"
       y="457.3739"
       id="text4423-6"><tspan
         sodipodi:role="line"
         id="tspan4425-6"
         x="490"
         y="457.3739">Hub MDI-X</tspan></text>
    <path
       style="fill:none;stroke:#000000;stroke-width:1px;stroke-linecap:butt;stroke-linejoin:miter;stroke-opacity:1;marker-end:url(#Arrow1Lend)"
       d="m 560,232.50452 40,0"
       id="path4427-1" />
    <text
       xml:space="preserve"
       style="font-size:20px;font-style:normal;font-weight:normal;fill:#000000;fill-opacity:1;stroke:none;font-family:Arial;-inkscape-font-specification:Arial"
       x="-614.41571"
       y="238.61443"
       id="text4877-8"
       transform="scale(-1,1)"><tspan
         sodipodi:role="line"
         id="tspan4879-49"
         x="-614.41571"
         y="238.61443">+</tspan></text>
    <path
       style="fill:none;stroke:#000000;stroke-width:1px;stroke-linecap:butt;stroke-linejoin:miter;stroke-opacity:1;marker-end:url(#Arrow1Lend)"
       d="m 560,262.50452 40,0"
       id="path4427-2-6" />
    <text
       xml:space="preserve"
       style="font-size:32px;font-style:normal;font-weight:normal;fill:#000000;fill-opacity:1;stroke:none;font-family:Arial;-inkscape-font-specification:Arial"
       x="-614.41571"
       y="268.61441"
       id="text4877-7-3"
       transform="scale(-1,1)"><tspan
         sodipodi:role="line"
         id="tspan4879-9-7"
         x="-614.41571"
         y="268.61441">-</tspan></text>
    <text
       xml:space="preserve"
       style="font-size:18px;font-style:normal;font-weight:normal;fill:#000000;fill-opacity:1;stroke:none;font-family:Arial;-inkscape-font-specification:Arial"
       x="585"
       y="252.36218"
       id="text4419-3-8"><tspan
         sodipodi:role="line"
         id="tspan4421-1-8"
         x="585"
         y="252.36218">Receive</tspan></text>
    <path
       style="fill:none;stroke:#000000;stroke-width:1px;stroke-linecap:butt;stroke-linejoin:miter;stroke-opacity:1;marker-end:url(#Arrow1Lend)"
       d="m 600,287.50452 -40,0"
       id="path4427-23-2" />
    <text
       xml:space="preserve"
       style="font-size:20px;font-style:normal;font-weight:normal;fill:#000000;fill-opacity:1;stroke:none;font-family:Arial;-inkscape-font-specification:Arial"
       x="-614.41571"
       y="293.61441"
       id="text4877-3-9"
       transform="scale(-1,1)"><tspan
         sodipodi:role="line"
         id="tspan4879-4-1"
         x="-614.41571"
         y="293.61441">+</tspan></text>
    <path
       style="fill:none;stroke:#000000;stroke-width:1px;stroke-linecap:butt;stroke-linejoin:miter;stroke-opacity:1;marker-end:url(#Arrow1Lend)"
       d="m 600,357.50451 -40,0"
       id="path4427-2-1-3" />
    <text
       xml:space="preserve"
       style="font-size:32px;font-style:normal;font-weight:normal;fill:#000000;fill-opacity:1;stroke:none;font-family:Arial;-inkscape-font-specification:Arial"
       x="-673.09314"
       y="-320.95459"
       id="text4877-7-1-5"
       transform="scale(-0.91282423,-1.0955012)"><tspan
         sodipodi:role="line"
         id="tspan4879-9-3-9"
         x="-673.09314"
         y="-320.95459">-</tspan></text>
    <rect
       style="fill:none;stroke:#000000;stroke-width:3;stroke-miterlimit:4;stroke-opacity:1;stroke-dasharray:none"
       id="rect2874-9"
       width="55"
       height="219.28571"
       x="-580"
       y="211.07593"
       transform="scale(-1,1)" />
    <rect
       y="210.93361"
       x="125"
       height="219.28571"
       width="55"
       id="rect4402"
       style="fill:none;stroke:#000000;stroke-width:3;stroke-miterlimit:4;stroke-opacity:1;stroke-dasharray:none;fill-opacity:1" />
    <path
       style="fill:#ff7316;fill-opacity:1;stroke:none"
       d="m 150.52993,291.35967 28.53257,-13.6447 0,14.64721 -31.0025,0 z"
       id="path5556-4"
       inkscape:connector-curvature="0"
       sodipodi:nodetypes="ccccc" />
    <path
       style="fill:#5cdb00;fill-opacity:1;stroke:none"
       d="m 150.22756,241.68867 28.33369,-14.11604 0,14.64722 -30,0 z"
       id="path5556"
       inkscape:connector-curvature="0"
       sodipodi:nodetypes="ccccc" />
    <rect
       style="font-size:11px;opacity:1;fill:none;stroke:#000000;stroke-width:0.96336782;stroke-miterlimit:4;stroke-dasharray:none;stroke-opacity:1"
       id="rect4222"
       width="30"
       height="14.647212"
       x="148.56125"
       y="227.57263" />
    <text
       xml:space="preserve"
       style="font-style:normal;font-weight:normal;font-size:12px;font-family:Arial;-inkscape-font-specification:Arial;fill:#000000;fill-opacity:1;stroke:none"
       x="160.06027"
       y="239.02417"
       id="text4224"><tspan
         sodipodi:role="line"
         id="tspan4226"
         x="160.06027"
         y="239.02417">1</tspan></text>
    <rect
       style="font-size:11px;opacity:1;fill:#5cdb00;stroke:#000000;stroke-width:0.96336788;stroke-miterlimit:4;stroke-dasharray:none;stroke-opacity:1;fill-opacity:1"
       id="rect4222-7"
       width="30"
       height="14.647212"
       x="148.56125"
       y="252.36218" />
    <text
       xml:space="preserve"
       style="font-style:normal;font-weight:normal;font-size:12px;font-family:Arial;-inkscape-font-specification:Arial;fill:#000000;fill-opacity:1;stroke:none"
       x="160.22433"
       y="263.87524"
       id="text4224-4"><tspan
         sodipodi:role="line"
         id="tspan4226-0"
         x="160.22433"
         y="263.87524">2</tspan></text>
    <rect
       style="font-size:11px;fill:none;stroke:#000000;stroke-width:0.97933191;stroke-miterlimit:4;stroke-dasharray:none;stroke-opacity:1"
       id="rect4222-7-8"
       width="31.002502"
       height="14.647212"
       x="148.06"
       y="277.71497" />
    <text
       xml:space="preserve"
       style="font-style:normal;font-weight:normal;font-size:12px;font-family:Arial;-inkscape-font-specification:Arial;fill:#000000;fill-opacity:1;stroke:none"
       x="160.25949"
       y="289.16943"
       id="text4224-4-2"><tspan
         sodipodi:role="line"
         id="tspan4226-0-4"
         x="160.25949"
         y="289.16943">3</tspan></text>
    <rect
       style="font-size:11px;fill:none;stroke:#000000;stroke-width:0.96324486;stroke-miterlimit:4;stroke-dasharray:none;stroke-opacity:1"
       id="rect4222-7-5"
       width="29.99234"
       height="14.647212"
       x="148.56508"
       y="302.07138" />
    <text
       xml:space="preserve"
       style="font-style:normal;font-weight:normal;font-size:12px;font-family:Arial;-inkscape-font-specification:Arial;fill:#000000;fill-opacity:1;stroke:none"
       x="160.26242"
       y="313.70746"
       id="text4224-4-1"><tspan
         sodipodi:role="line"
         id="tspan4226-0-7"
         x="160.26242"
         y="313.70746">4</tspan></text>
    <rect
       style="font-size:11px;fill:none;stroke:#000000;stroke-width:0.97132194;stroke-miterlimit:4;stroke-dasharray:none;stroke-opacity:1"
       id="rect4222-7-1"
       width="30.497437"
       height="14.647212"
       x="148.31253"
       y="327.83029" />
    <text
       xml:space="preserve"
       style="font-style:normal;font-weight:normal;font-size:12px;font-family:Arial;-inkscape-font-specification:Arial;fill:#000000;fill-opacity:1;stroke:none"
       x="160.23605"
       y="339.46637"
       id="text4224-4-5"><tspan
         sodipodi:role="line"
         id="tspan4226-0-2"
         x="160.23605"
         y="339.46637">5</tspan></text>
    <rect
       style="font-size:11px;fill:#ff7316;fill-opacity:1;stroke:#000000;stroke-width:0.97132194;stroke-miterlimit:4;stroke-dasharray:none;stroke-opacity:1"
       id="rect4222-7-1-4"
       width="30.497437"
       height="14.647212"
       x="148.31253"
       y="352.71497" />
    <text
       xml:space="preserve"
       style="font-style:normal;font-weight:normal;font-size:12px;font-family:Arial;-inkscape-font-specification:Arial;fill:#000000;fill-opacity:1;stroke:none"
       x="160.18332"
       y="364.35104"
       id="text4224-4-5-2"><tspan
         sodipodi:role="line"
         id="tspan4226-0-2-3"
         x="160.18332"
         y="364.35104">6</tspan></text>
    <rect
       style="font-size:11px;fill:none;stroke:#000000;stroke-width:0.97132194;stroke-miterlimit:4;stroke-dasharray:none;stroke-opacity:1"
       id="rect4222-7-1-2"
       width="30.497437"
       height="14.647212"
       x="148.31253"
       y="377.71497" />
    <text
       xml:space="preserve"
       style="font-style:normal;font-weight:normal;font-size:12px;font-family:Arial;-inkscape-font-specification:Arial;fill:#000000;fill-opacity:1;stroke:none"
       x="160.21848"
       y="389.1665"
       id="text4224-4-5-1"><tspan
         sodipodi:role="line"
         id="tspan4226-0-2-6"
         x="160.21848"
         y="389.1665">7</tspan></text>
    <rect
       style="font-size:11px;fill:none;stroke:#000000;stroke-width:0.97132194;stroke-miterlimit:4;stroke-dasharray:none;stroke-opacity:1"
       id="rect4222-7-1-5"
       width="30.497437"
       height="14.647212"
       x="148.31253"
       y="402.71497" />
    <text
       xml:space="preserve"
       style="font-style:normal;font-weight:normal;font-size:12px;font-family:Arial;-inkscape-font-specification:Arial;fill:#000000;fill-opacity:1;stroke:none"
       x="160.22433"
       y="414.16943"
       id="text4224-4-5-7"><tspan
         sodipodi:role="line"
         id="tspan4226-0-2-61"
         x="160.22433"
         y="414.16943">8</tspan></text>
  </g>
</svg>
